…
``` r
county <- group_by(PM, year, COUNTY) %>% summarize(pm25 = median(pm25, na.rm= TRUE))
```

    ## `summarise()` has grouped output by 'year'. You can override using the
    ## `.groups` argument.

``` r
raw_county <- which(county$COUNTY %in% unique(pm04$COUNTY))
county <- county[raw_county, ]

county
```

    ## # A tibble: 94 × 3
    ## # Groups:   year [2]
    ##     year COUNTY        pm25
    ##    <dbl> <chr>        <dbl>
    ##  1  2004 Alameda       8.75
    ##  2  2004 Butte         7.9 
    ##  3  2004 Calaveras     7   
    ##  4  2004 Colusa        7   
    ##  5  2004 Contra Costa  8.6 
    ##  6  2004 Del Norte     2.8 
    ##  7  2004 El Dorado     2.9 
    ##  8  2004 Fresno       11   
    ##  9  2004 Humboldt      6.2 
    ## 10  2004 Imperial      9.4 
    ## # … with 84 more rows
…
